19667 1713 279
8791 31579 308
2610 21332 279
2622 13914 276
15709 26375 282
18398 6142 279
1232 23150 279
23665 28001 308
22673 2937 279
30830 22607 308
10006 4588 262
2736 3536 217
4946 19159 279
22026 8203 279
6675 5060 262
5321 5310 117
13945 1358 276
8285 229 262
2366 11090 268
32737 27809 285
9266 16258 276
19494 14984 279
31344 19731 308
25363 29282 308
28129 10197 308
24846 11028 282
7352 24334 282
30924 31973 285
6024 21981 279
2388 14325 276
31869 19705 308
27260 25316 308
11120 7447 268
18096 12560 279
21612 23241 269
1499 12941 268
1832 6228 262
2407 3071 217
28589 7476 308
9738 20593 279
4306 7438 262
25662 8311 282
16030 24496 282
30684 32349 285
27999 27147 259
21528 24945 282
9159 20606 279
19397 22873 274
21055 1893 279
27924 8896 308
18397 20579 274
27789 26007 308
28489 6067 308
23208 12697 279
12116 8590 268
12841 26051 282
23614 17561 282
31819 6569 308
7605 5358 262
30967 32346 285
11341 22351 279
19623 19005 274
19091 27650 308
23924 25560 264
17221 20665 279
28845 22070 308
14458 18997 279
7883 6721 257
30139 17086 308
12888 31126 308
23442 7997 279
16792 22932 279
26935 2607 308
21942 1730 279
3015 13154 268
23649 10523 282
1412 29289 308
8956 10676 260
25692 19899 282
2813 13872 276
31725 22824 308
8648 5138 262
30076 29563 272
29917 15890 308
26234 12702 282
20357 6048 279
22497 23712 282
23995 30592 308
26650 22318 308
29537 18039 308
6757 23159 279
15862 29022 308
9053 25500 282
28259 9287 308
8453 20604 279
1629 19709 279
21806 18024 274
13929 15430 271
435 8887 262
2267 28954 308
27605 23912 308
22497 26456 282
18158 9588 279
32037 3563 308
10891 26836 308
5403 8957 262
27996 13913 308
1283 5631 238
4724 23774 282
22895 26867 308
11587 26884 308
28260 31679 285
15727 10076 276
2818 5662 238
2845 8215 262
16313 7751 276
23708 24743 264
29810 20408 308
16589 23999 282
15038 7073 276
23634 7542 282
10082 29379 308
29220 10306 308
7452 10990 268
20991 11109 279
31895 5102 308
19690 12741 279
673 29591 308
23515 26548 282
20771 26323 282
15123 24144 282
20710 12225 279
15239 11259 276
24988 19035 282
9547 30819 308
3691 9619 262
25171 7338 282
19923 16073 279
6948 14806 276
28963 5305 308
24589 26867 308
13162 3937 268
1872 12184 268
10965 26598 282
5739 26099 282
11903 30754 308
3870 1644 238
182 6577 262
14138 20660 279
23568 1237 282
17960 31503 308
5655 14696 276
18649 14052 279
19244 9564 279
11524 21869 279
31347 5087 308
29323 28267 272
12273 1909 268
7986 29569 308
9228 31215 308
18305 26524 282
16891 16657 266
12458 24402 282
1531 32714 308
5175 3480 238
3084 22564 279
7309 31302 308
29230 17251 308
9545 22193 279
28224 18013 308
31708 10803 308
27645 3706 308
518 18925 279
31881 28133 285
25972 11971 282
6110 32262 308
6827 16123 276
25748 15019 282
9938 7219 260
24684 12995 282
7352 30956 308
15906 10867 276
22269 207 279
31056 31888 285
22509 31084 308
667 30922 308
30775 16478 308
28952 30459 272
25150 20151 282
15730 32285 308
7741 18105 279
9554 5298 262
14270 10881 276
32422 18465 308
27194 3725 308
11541 8734 268
25755 31029 308
4614 17599 276
19364 28177 308
2055 1158 182
24710 827 282
3384 22081 279
9050 30973 308
5591 13728 276
11529 3619 268
13041 21161 279
24382 29005 308
566 11945 268
20222 1001 279
6944 26562 282
494 15041 276
14476 30538 308
113 23691 282
2930 28758 308
14099 9029 276
121 28525 308
15989 28616 308
13057 356 268
22046 25838 282
13557 18651 279
13800 28469 308
7335 7404 208
20550 4423 279
26247 3792 282
26740 9265 308
4462 15967 276
16571 18867 279
6322 21530 279
27080 17872 308
20593 3505 279
17660 29445 308
19004 13428 279
2220 26642 308
21011 21186 225
8707 24377 282
12242 3085 268
9994 24400 282
5361 26230 282
22144 28178 308
25235 6876 282
29385 18876 308
26306 17002 282
14774 26592 282
1820 18712 279
18697 2578 279
1040 15747 276
30390 12021 308
17220 5662 276
791 20743 279
3251 14713 276
